{
  "plugins": [
    [
      "babel-plugin-transform-builtin-extend",
      {
        "globals": [
          "Error",
          "Array"
        ]
      }
    ],
    [
      "@babel/plugin-proposal-class-properties"
    ],
    [
      "@babel/plugin-transform-modules-commonjs"
    ],
    [
      "add-module-exports"
    ]
  ]
}
